com\project1\LoginPage.class
com\project1\AfterLogin$2.class
com\project1\homePage.class
com\project1\MainPage.class
com\project1\AfterLogin.class
com\project1\AfterLogin$1.class
com\project1\LoginPage$1.class
com\project1\Main.class
com\project1\homePage$1.class
com\project1\LoginPage$2.class
